…
Problem 9. (5 points) Among the YNP wolf packs, which one has had the highest overall persistence `persisty1` for the years represented in the data? Look this pack up online and tell me what is unique about its behavior- specifically, what prey animals does this pack specialize on?  


```r
ynp %>%
  group_by(pack) %>%
  summarize(max_pers=sum(persisty1, na.rm=T)) %>%
  arrange(desc(max_pers))
```

```
## # A tibble: 46 × 2
##    pack        max_pers
##    <chr>          <int>
##  1 mollies           26
##  2 cougar            20
##  3 yelldelta         18
##  4 druid             13
##  5 leopold           12
##  6 agate             10
##  7 8mile              9
##  8 canyon             9
##  9 gibbon/mary        9
## 10 nezperce           9
## # ℹ 36 more rows
```
…
```r
wolves %>%
  group_by(park, pack, biolyr, mort_all) %>%
  summarize(mean_pers=mean(packsize_aug, na.rm=T)) %>%
  arrange(desc(mean_pers))
```

```
## `summarise()` has grouped output by 'park', 'pack', 'biolyr'. You can override
## using the `.groups` argument.
```

```
## # A tibble: 864 × 5
## # Groups:   park, pack, biolyr [864]
##    park  pack        biolyr mort_all mean_pers
##    <chr> <chr>        <int>    <int>     <dbl>
##  1 YNP   druid         2001        0      37  
##  2 YNP   junction      2020        0      35  
##  3 DENA  East Fork     1990        0      33  
##  4 YNP   leopold       2004        0      28  
##  5 DENA  East Fork     1989        0      27  
##  6 YNP   8mile         2014        1      27  
##  7 YNP   druid         2000        1      27  
##  8 GNTP  Buffalo       2009        1      26.4
##  9 YNP   gibbon/mary   2009        1      26  
## 10 YNP   leopold       2005        0      26  
## # ℹ 854 more rows
```
