…
1. Use the function(s) of your choice to get an idea of its structure, including how NA's are treated. Are the data tidy?  


```r
deserts
```

```
## # A tibble: 34,786 × 13
##    record_id month   day  year plot_id species_id sex   hindfoot_length weight
##        <dbl> <dbl> <dbl> <dbl>   <dbl> <chr>      <chr>           <dbl>  <dbl>
##  1         1     7    16  1977       2 NL         M                  32     NA
##  2         2     7    16  1977       3 NL         M                  33     NA
##  3         3     7    16  1977       2 DM         F                  37     NA
##  4         4     7    16  1977       7 DM         M                  36     NA
##  5         5     7    16  1977       3 DM         M                  35     NA
##  6         6     7    16  1977       1 PF         M                  14     NA
##  7         7     7    16  1977       2 PE         F                  NA     NA
##  8         8     7    16  1977       1 DM         M                  37     NA
##  9         9     7    16  1977       1 DM         F                  34     NA
## 10        10     7    16  1977       6 PF         F                  20     NA
## # ℹ 34,776 more rows
## # ℹ 4 more variables: genus <chr>, species <chr>, taxa <chr>, plot_type <chr>
```
…
```
##    Length     Class      Mode 
##     34786 character character
```



```r
deserts %>% 
  count(genus, species) %>%
   arrange(n)
```

```
## # A tibble: 48 × 3
##    genus           species          n
##    <chr>           <chr>        <int>
##  1 Cnemidophorus   tigris           1
##  2 Cnemidophorus   uniparens        1
##  3 Crotalus        scutalatus       1
##  4 Crotalus        viridis          1
##  5 Sceloporus      clarki           1
##  6 Spermophilus    tereticaudus     1
##  7 Ammodramus      savannarum       2
##  8 Reithrodontomys sp.              2
##  9 Zonotrichia     leucophrys       2
## 10 Lizard          sp.              4
## # ℹ 38 more rows
```

The species least frequently sampled in this study is tigris, uniparens, scutalatus, viridis, clarki, and tereticaudus.


```r
deserts %>% 
  count(genus, species) %>%
   arrange(desc(n))
```

```
## # A tibble: 48 × 3
##    genus           species          n
##    <chr>           <chr>        <int>
##  1 Dipodomys       merriami     10596
##  2 Chaetodipus     penicillatus  3123
##  3 Dipodomys       ordii         3027
##  4 Chaetodipus     baileyi       2891
##  5 Reithrodontomys megalotis     2609
##  6 Dipodomys       spectabilis   2504
##  7 Onychomys       torridus      2249
##  8 Perognathus     flavus        1597
##  9 Peromyscus      eremicus      1299
## 10 Neotoma         albigula      1252
## # ℹ 38 more rows
```
…
9. Which two species have, on average, the highest weight? Once you have identified them, make a new column that is a ratio of `weight` to `hindfoot_length`. Make a plot that shows the range of this new ratio and fill by sex.


```r
deserts %>%
  group_by(species) %>%
  summarize(mean_weight=mean(weight, na.rm=T)) %>%
  arrange(desc(mean_weight))
```

```
## # A tibble: 40 × 2
##    species      mean_weight
##    <chr>              <dbl>
##  1 albigula           159. 
##  2 spectabilis        120. 
##  3 spilosoma           93.5
##  4 hispidus            65.6
##  5 fulviventer         58.9
##  6 ochrognathus        55.4
##  7 ordii               48.9
##  8 merriami            43.2
##  9 baileyi             31.7
## 10 leucogaster         31.6
## # ℹ 30 more rows
```
…
