…
```r
happy
```

```
## # A tibble: 149 × 20
##    country_name regional_indicator    ladder_score standard_error_of_ladder_sc…¹
##    <chr>        <chr>                        <dbl>                         <dbl>
##  1 Finland      Western Europe                7.84                         0.032
##  2 Denmark      Western Europe                7.62                         0.035
##  3 Switzerland  Western Europe                7.57                         0.036
##  4 Iceland      Western Europe                7.55                         0.059
##  5 Netherlands  Western Europe                7.46                         0.027
##  6 Norway       Western Europe                7.39                         0.035
##  7 Sweden       Western Europe                7.36                         0.036
##  8 Luxembourg   Western Europe                7.32                         0.037
##  9 New Zealand  North America and ANZ         7.28                         0.04 
## 10 Austria      Western Europe                7.27                         0.036
## # ℹ 139 more rows
## # ℹ abbreviated name: ¹​standard_error_of_ladder_score
## # ℹ 16 more variables: upperwhisker <dbl>, lowerwhisker <dbl>,
## #   logged_gdp_per_capita <dbl>, social_support <dbl>,
## #   healthy_life_expectancy <dbl>, freedom_to_make_life_choices <dbl>,
## #   generosity <dbl>, perceptions_of_corruption <dbl>,
## #   ladder_score_in_dystopia <dbl>, explained_by_log_gdp_per_capita <dbl>, …
```
…
Western Europe, North America and ANZ, and Central and Eastern Europe rank the highest in mean social support!

Sub-Saharan Africa, South Asia, and Middle East and North Africa rank the lowest in mean  mean social support!

Highest Ladder Score 


```r
happy %>%
  select(country_name, ladder_score) %>%
  arrange(desc(ladder_score))
```

```
## # A tibble: 149 × 2
##    country_name ladder_score
##    <chr>               <dbl>
##  1 Finland              7.84
##  2 Denmark              7.62
##  3 Switzerland          7.57
##  4 Iceland              7.55
##  5 Netherlands          7.46
##  6 Norway               7.39
##  7 Sweden               7.36
##  8 Luxembourg           7.32
##  9 New Zealand          7.28
## 10 Austria              7.27
## # ℹ 139 more rows
```

Lowest Ladder Score 


```r
happy %>%
  select(country_name, ladder_score) %>%
  arrange(ladder_score)
```

```
## # A tibble: 149 × 2
##    country_name ladder_score
##    <chr>               <dbl>
##  1 Afghanistan          2.52
##  2 Zimbabwe             3.14
##  3 Rwanda               3.42
##  4 Botswana             3.47
##  5 Lesotho              3.51
##  6 Malawi               3.6 
##  7 Haiti                3.62
##  8 Tanzania             3.62
##  9 Yemen                3.66
## 10 Burundi              3.78
## # ℹ 139 more rows
```

Top 5 Countries for Life Expectancy


```r
happy %>%
  select(country_name, healthy_life_expectancy) %>%
  arrange(desc(healthy_life_expectancy))
```

```
## # A tibble: 149 × 2
##    country_name              healthy_life_expectancy
##    <chr>                                       <dbl>
##  1 Singapore                                    77.0
##  2 Hong Kong S.A.R. of China                    76.8
##  3 Japan                                        75.1
##  4 Spain                                        74.7
##  5 Switzerland                                  74.4
##  6 France                                       74  
##  7 Australia                                    73.9
##  8 South Korea                                  73.9
##  9 Cyprus                                       73.9
## 10 North Cyprus                                 73.9
## # ℹ 139 more rows
```

Lowest 5 Countries for Life Expectancy


```r
happy %>%
  select(country_name, healthy_life_expectancy) %>%
  arrange(healthy_life_expectancy)
```

```
## # A tibble: 149 × 2
##    country_name healthy_life_expectancy
##    <chr>                          <dbl>
##  1 Chad                            48.5
##  2 Lesotho                         48.7
##  3 Nigeria                         50.1
##  4 Ivory Coast                     50.1
##  5 Swaziland                       50.8
##  6 Sierra Leone                    51.7
##  7 Mali                            52.0
##  8 Afghanistan                     52.5
##  9 Burundi                         53.4
## 10 Cameroon                        53.5
## # ℹ 139 more rows
```


Highest/Lowest 5 Countries for logged_gdp_per_capita


```r
happy %>%
  select(country_name, logged_gdp_per_capita) %>%
  arrange(desc(logged_gdp_per_capita))
```

```
## # A tibble: 149 × 2
##    country_name              logged_gdp_per_capita
##    <chr>                                     <dbl>
##  1 Luxembourg                                 11.6
##  2 Singapore                                  11.5
##  3 Ireland                                    11.3
##  4 Switzerland                                11.1
##  5 United Arab Emirates                       11.1
##  6 Norway                                     11.1
##  7 United States                              11.0
##  8 Hong Kong S.A.R. of China                  11  
##  9 Denmark                                    10.9
## 10 Netherlands                                10.9
## # ℹ 139 more rows
```


```r
happy %>%
  select(country_name,logged_gdp_per_capita) %>%
  arrange((logged_gdp_per_capita))
```

```
## # A tibble: 149 × 2
##    country_name logged_gdp_per_capita
##    <chr>                        <dbl>
##  1 Burundi                       6.64
##  2 Malawi                        6.96
##  3 Niger                         7.10
##  4 Mozambique                    7.16
##  5 Liberia                       7.29
##  6 Togo                          7.36
##  7 Chad                          7.36
##  8 Madagascar                    7.40
##  9 Sierra Leone                  7.43
## 10 Haiti                         7.48
## # ℹ 139 more rows
```
…
