…
These data are tidy since the columns and observations have their own cells. These are in wide format.


3. We are only interested in the variables site, date, and enterococci_cfu_100ml. Make a new object focused on these variables only. Name the object `sydneybeaches_long`


```r
sydneybeaches_long <- sydneybeaches %>% 
  select(site, date, enterococci_cfu_100ml)
sydneybeaches_long
```

```
## # A tibble: 3,690 × 3
##    site           date       enterococci_cfu_100ml
##    <chr>          <chr>                      <dbl>
##  1 Clovelly Beach 02/01/2013                    19
##  2 Clovelly Beach 06/01/2013                     3
##  3 Clovelly Beach 12/01/2013                     2
##  4 Clovelly Beach 18/01/2013                    13
##  5 Clovelly Beach 30/01/2013                     8
##  6 Clovelly Beach 05/02/2013                     7
##  7 Clovelly Beach 11/02/2013                    11
##  8 Clovelly Beach 23/02/2013                    97
##  9 Clovelly Beach 07/03/2013                     3
## 10 Clovelly Beach 25/03/2013                     0
## # ℹ 3,680 more rows
```
…
5. Pivot the data back so that the dates are data and not column names.


```r
sydneybeaches_wide %>% 
  pivot_longer(-site,
               names_to="date",
               values_to="enterococci_cfu_100ml")
```

```
## # A tibble: 3,784 × 3
##    site           date       enterococci_cfu_100ml
##    <chr>          <chr>                      <dbl>
##  1 Clovelly Beach 02/01/2013                    19
##  2 Clovelly Beach 06/01/2013                     3
##  3 Clovelly Beach 12/01/2013                     2
##  4 Clovelly Beach 18/01/2013                    13
##  5 Clovelly Beach 30/01/2013                     8
##  6 Clovelly Beach 05/02/2013                     7
##  7 Clovelly Beach 11/02/2013                    11
##  8 Clovelly Beach 23/02/2013                    97
##  9 Clovelly Beach 07/03/2013                     3
## 10 Clovelly Beach 25/03/2013                     0
## # ℹ 3,774 more rows
```


6. We haven't dealt much with dates yet, but separate the date into columns day, month, and year. Do this on the `sydneybeaches_long` data.


```r
sydneybeaches_long %>% 
  separate(date, into=c("day", "month", "year"), sep="/")
```

```
## # A tibble: 3,690 × 5
##    site           day   month year  enterococci_cfu_100ml
##    <chr>          <chr> <chr> <chr>                 <dbl>
##  1 Clovelly Beach 02    01    2013                     19
##  2 Clovelly Beach 06    01    2013                      3
##  3 Clovelly Beach 12    01    2013                      2
##  4 Clovelly Beach 18    01    2013                     13
##  5 Clovelly Beach 30    01    2013                      8
##  6 Clovelly Beach 05    02    2013                      7
##  7 Clovelly Beach 11    02    2013                     11
##  8 Clovelly Beach 23    02    2013                     97
##  9 Clovelly Beach 07    03    2013                      3
## 10 Clovelly Beach 25    03    2013                      0
## # ℹ 3,680 more rows
```
…
```
## `summarise()` has grouped output by 'site'. You can override using the
## `.groups` argument.
```

```r
mean_entero
```

```
## # A tibble: 66 × 3
## # Groups:   site [11]
##    site         year  mean_enterococci_cfu_100ml
##    <chr>        <chr>                      <dbl>
##  1 Bondi Beach  2013                        32.2
##  2 Bondi Beach  2014                        11.1
##  3 Bondi Beach  2015                        14.3
##  4 Bondi Beach  2016                        19.4
##  5 Bondi Beach  2017                        13.2
##  6 Bondi Beach  2018                        22.9
##  7 Bronte Beach 2013                        26.8
##  8 Bronte Beach 2014                        17.5
##  9 Bronte Beach 2015                        23.6
## 10 Bronte Beach 2016                        61.3
## # ℹ 56 more rows
```
…
