…
https://ebird.org/species/eupowl1



**10. As measured by the data, which bird species has the largest homerange? Show all of your work, please. Look this species up online and tell me about it!**.  

```r
homerange %>%
  filter(class=="aves") %>%
  select(common.name, class, genus, species, mean.hra.m2) %>%
  arrange(desc(mean.hra.m2))
```

```
## # A tibble: 140 × 5
##    common.name            class genus        species      mean.hra.m2
##    <chr>                  <chr> <chr>        <chr>              <dbl>
##  1 caracara               aves  caracara     cheriway       241000000
##  2 Montagu's harrier      aves  circus       pygargus       200980000
##  3 peregrine falcon       aves  falco        peregrinus     153860000
##  4 booted eagle           aves  hieraaetus   pennatus       117300000
##  5 ostrich                aves  struthio     camelus         84300000
##  6 short-toed snake eagle aves  circaetus    gallicus        78500000
##  7 European turtle dove   aves  streptopelia turtur          63585000
##  8 Egyptian vulture       aves  neophron     percnopterus    63570000
##  9 common buzzard         aves  buteo        buteo           50240000
## 10 lanner falcon          aves  falco        biarmicus       50000000
## # ℹ 130 more rows
```
…
